id_mnr;nom_mnr;id_pim;nom_pim;id_pipa;nom_pipa;id_global;nom_global
1000129;20 Minutes France;1306956;20 Minutes France;1306644;20 Minutes France;9991000129;20 Minutes France
1919405;3 Slips;3589335;3 Slips;3589335;3 Slips;9991919405;3 Slips
2543342;3G.cn;46915077;3G.cn;46915077;3G.cn;9992543342;3G.cn
3154882;4B Media;48560773;4B Media;48560773;4B Media;9993154882;4B Media
1447737;Abcyne;1313368;Abcyne;1313368;Abcyne;9991447737;Abcyne
1243;Accor;1371027;Accor;1371027;Accor;9990001243;Accor
1252;AccuWeather;1306766;AccuWeather;1306766;AccuWeather;9990001252;AccuWeather
2146624;Activaweb;44180286;Activaweb;44180286;Activaweb;9992146624;Activaweb
3162421;Addict Media;48766370;Addict Media;48766370;Addict Media;9993162421;Addict Media
1454;Adecco;15464699;Adecco;15464699;Adecco;9990001454;Adecco
1021041;ADN Creation;15464821;ADN Creation;15464821;ADN Creation;9991021041;ADN Creation
1506;Adobe;1307559;Adobe;1307559;Adobe;9990001506;Adobe
1695;Adverline;1309874;Adverline;1309874;Adverline;9990001695;Adverline
2219284;Adversport;11933655;Adversport;11933655;Adversport;9992219284;Adversport
799;AEDF;30103534;AEDF;30103534;AEDF;9990000799;AEDF
1675730;AG Netconcept;1371312;AG Netconcept;1371312;AG Netconcept;9991675730;AG Netconcept
1000413;AGL;1307229;AGL;1307229;AGL;9991000413;AGL
1888;Air France - KLM;1307529;Air France - KLM;1307529;Air France - KLM;9990001888;Air France - KLM
2135;Alibaba.com;11933205;Alibaba.com;11933205;Alibaba.com;9990002135;Alibaba.com
1272797;Alinea;1314520;Alinea;1314520;Alinea;9991272797;Alinea
1447849;ALJ Presse;15467155;ALJ Presse;15467155;ALJ Presse;9991447849;ALJ Presse
1394501;Allopneus.com;9953071;Allopneus.com;9953071;Allopneus.com;9991394501;Allopneus.com
1908516;Alpred;11934041;Alpred;11934041;Alpred;9991908516;Alpred
1538703;Altice;1312742;Altice;1312742;Altice;9991538703;Altice
2515;Amazon;1307043;Amazon;1307043;Amazon;9990002515;Amazon
1249499;Ankama Group;1307957;Ankama Group;1307957;Ankama Group;9991249499;Ankama Group
3079;APEC;1307892;APEC;1307892;APEC;9990003079;APEC
1562917;Aplon France;1308225;Aplon France;1308225;Aplon France;9991562917;Aplon France
3114;Apple Computer;1306626;Apple Computer;1306626;Apple Computer;9990003114;Apple Computer
2978151;AppTurbo;47965596;AppTurbo;47965596;AppTurbo;9992978151;AppTurbo
1235051;Aramis;1311795;Aramis;1311795;Aramis;9991235051;Aramis
3387;Arte;1376211;Arte;1376211;Arte;9990003387;Arte
47506;ASOS.com;15462748;ASOS.com;15462748;ASOS.com;9990047506;ASOS.com
1214498;Association VideoLAN;1309009;Association VideoLAN;1309009;Association VideoLAN;9991214498;Association VideoLAN
3647;Assurance Maladie;1371522;Assurance Maladie;1371522;Assurance Maladie;9990003647;Assurance Maladie
1021042;Audivox;1312655;Audivox;1312655;Audivox;9991021042;Audivox
47514;auFeminin;1306922;auFeminin;1306922;auFeminin;9990047514;auFeminin
1232570;AVAST Software;1313132;AVAST Software;1313132;AVAST Software;9991232570;AVAST Software
17096;AVG Technologies;45147071;AVG Technologies;45147071;AVG Technologies;9990017096;AVG Technologies
1051;AXA;1371745;AXA;1371745;AXA;9990001051;AXA
4175;Axel Springer AG;15462580;Axel Springer AG;15462580;Axel Springer AG;9990004175;Axel Springer AG
2312962;Azurgate;11933906;Azurgate;11933906;Azurgate;9992312962;Azurgate
2030294;Babelio;46579233;Babelio;46579233;Babelio;9992030294;Babelio
1527339;BADOO;1306737;BADOO;1306737;BADOO;9991527339;BADOO
1001955;Baidu;1307766;Baidu;1307766;Baidu;9991001955;Baidu
4662;Banque Populaire;1308191;Banque Populaire;1308191;Banque Populaire;9990004662;Banque Populaire
4810;Bayard;1371905;Bayard;1371905;Bayard;9990004810;Bayard
1001850;BENEGIL Developpement;1310352;BENEGIL Developpement;1310352;BENEGIL Developpement;9991001850;BENEGIL Developpement
5089;Bertelsmann;1306778;Bertelsmann;1306778;Bertelsmann;9990005089;Bertelsmann
2249378;Best-deal.com;46578557;Best-deal.com;46578557;Best-deal.com;9992249378;Best-deal.com
1560197;Beyoung Interactive;1314334;Beyoung Interactive;1314334;Beyoung Interactive;9991560197;Beyoung Interactive
5214;Bibliotheque Nationale de France;15465458;Bibliotheque Nationale de France;15465458;Bibliotheque Nationale de France;9990005214;Bibliotheque Nationale de France
1264241;BitTorrent;1311874;BitTorrent;1311874;BitTorrent;9991264241;BitTorrent
1586139;Blogmusik.net;1306769;Blogmusik.net;1306769;Blogmusik.net;9991586139;Blogmusik.net
1287082;BlogSpirit;1314945;BlogSpirit;1314945;BlogSpirit;9991287082;BlogSpirit
5600;Blue Painter;15462477;Blue Painter;15462477;Blue Painter;9990005600;Blue Painter
17126;BNP PARIBAS;1306644;BNP PARIBAS;1307254;BNP PARIBAS;9990017126;BNP PARIBAS
1470196;Bourdet;1313474;Bourdet;1313474;Bourdet;9991470196;Bourdet
5901;Bouygues;1306743;Bouygues;1306743;Bouygues;9990005901;Bouygues
1432673;BrandAlley UK Limited;1307414;BrandAlley UK Limited;1307414;BrandAlley UK Limited;9991432673;BrandAlley UK Limited
2880183;Braniq Products;47214102;Braniq Products;47214102;Braniq Products;9992880183;Braniq Products
2328504;Bretagne-Online;30104784;Bretagne-Online;30104784;Bretagne-Online;9992328504;Bretagne-Online
2920864;Brico Prive;46276682;Brico Prive;46276682;Brico Prive;9992920864;Brico Prive
3116214;Buzzly Web;46407506;Buzzly Web;46407506;Buzzly Web;9993116214;Buzzly Web
6885;Caisse D Epargne;1307190;Caisse D Epargne;1307190;Caisse D Epargne;9990006885;Caisse D Epargne
6706;Caisse Nationale Allocations Familiales CNAF;1307025;Caisse Nationale Allocations Familiales CNAF;1307025;Caisse Nationale Allocations Familiales CNAF;9990006706;Caisse Nationale Allocations Familiales CNAF
1802503;Calameo;30098055;Calameo;30098055;Calameo;9991802503;Calameo
1263782;Camaieu;30103629;Camaieu;30103629;Camaieu;9991263782;Camaieu
7306;Carpe Diem;1308417;Carpe Diem;1308417;Carpe Diem;9990007306;Carpe Diem
7308;Carrefour;1308579;Carrefour;1308579;Carrefour;9990007308;Carrefour
1464112;CBS Corporation;1308173;CBS Corporation;1308173;CBS Corporation;9991464112;CBS Corporation
8800;CCM Benchmark Group;1306890;CCM Benchmark Group;1306890;CCM Benchmark Group;9990008800;CCM Benchmark Group
1482328;Centerblog.net;1310657;Centerblog.net;1310657;Centerblog.net;9991482328;Centerblog.net
2181424;Cerise Media;15464364;Cerise Media;15464364;Cerise Media;9992181424;Cerise Media
1284154;CGR Cinemas;11934426;CGR Cinemas;11934426;CGR Cinemas;9991284154;CGR Cinemas
7677;Chambre de Commerce et d Industrie;1313385;Chambre de Commerce et d Industrie;1313385;Chambre de Commerce et d Industrie;9990007677;Chambre de Commerce et d Industrie
1718852;Change.org;46259050;Change.org;46259050;Change.org;9991718852;Change.org
1445415;Chatango.com;1314984;Chatango.com;1314984;Chatango.com;9991445415;Chatango.com
1003489;Cherchons.com;1310436;Cherchons.com;1310436;Cherchons.com;9991003489;Cherchons.com
8319;Cityvox;47357021;Cityvox;47357021;Cityvox;9990008319;Cityvox
6723;CNRS;1372760;CNRS;1372760;CNRS;9990006723;CNRS
1638269;CNRTL;15462469;CNRTL;15462469;CNRTL;9991638269;CNRTL
1869287;Cobalink;1313437;Cobalink;1313437;Cobalink;9991869287;Cobalink
2847895;Comuto;46038251;Comuto;46038251;Comuto;9992847895;Comuto
1483875;ConcoursMania;1313639;ConcoursMania;1313639;ConcoursMania;9991483875;ConcoursMania
1798878;Conde Nast Digital;1382869;Conde Nast Digital;1382869;Conde Nast Digital;9991798878;Conde Nast Digital
9208;Conrad Electronic;1372860;Conrad Electronic;1372860;Conrad Electronic;9990009208;Conrad Electronic
1623457;Coyote System;11933237;Coyote System;11933237;Coyote System;9991623457;Coyote System
3123134;Cpasbien.pe;48160464;Cpasbien.pe;48160464;Cpasbien.pe;9993123134;Cpasbien.pe
456636;Credit Mutuel;1307643;Credit Mutuel;1307643;Credit Mutuel;9990456636;Credit Mutuel
1392976;Cultura.com;30128780;Cultura.com;30128780;Cultura.com;9991392976;Cultura.com
1531236;Cyando AG;30130471;Cyando AG;30130471;Cyando AG;9991531236;Cyando AG
9948;CyberCartes;1310359;CyberCartes;1310359;CyberCartes;9990009948;CyberCartes
10026;Cyberlink;46579178;Cyberlink;46579178;Cyberlink;9990010026;Cyberlink
3150334;Cyrillus Vertbaudet Group;48432121;Cyrillus VertbaudetÂ Group;48432121;Cyrillus VertbaudetÂ Group;9993150334;Cyrillus Vertbaudet Group
2551497;Dailygeekshow.com;45675398;Dailygeekshow.com;45675398;Dailygeekshow.com;9992551497;Dailygeekshow.com
1447745;Dailymotion;1306827;Dailymotion;1306827;Dailymotion;9991447745;Dailymotion
10518;Damartex UK Limited;45713567;Damartex UK Limited;45713567;Damartex UK Limited;9990010518;Damartex UK Limited
1004426;DARTY;1308264;DARTY;1308264;DARTY;9991004426;DARTY
1483271;DE FRACL Investissements;30126711;DE FRACL Investissements;30126711;DE FRACL Investissements;9991483271;DE FRACL Investissements
31992;De Persgroep;15464073;De Persgroep;15464073;De Persgroep;9990031992;De Persgroep
1248365;Decitre;15464319;Decitre;15464319;Decitre;9991248365;Decitre
1004737;Delcampe International;11933465;Delcampe International;11933465;Delcampe International;9991004737;Delcampe International
2848228;Delegation a l Information et a la Communication;45712076;Delegation a l Information et a la Communication;45712076;Delegation a l Information et a la Communication;9992848228;Delegation a l Information et a la Communication
2226317;Demotivateur.fr;46579289;Demotivateur.fr;46579289;Demotivateur.fr;9992226317;Demotivateur.fr
1787941;Developpement Durable Multimedia;44854374;Developpement Durable Multimedia;44854374;Developpement Durable Multimedia;9991787941;Developpement Durable Multimedia
1021113;DeviantART;3589168;DeviantART;3589168;DeviantART;9991021113;DeviantART
1267890;DevTribu;1373029;DevTribu;1373029;DevTribu;9991267890;DevTribu
1610192;Digital Virgo;1372701;Digital Virgo;1372701;Digital Virgo;9991610192;Digital Virgo
2523441;Digitaran;48159963;Digitaran;48159963;Digitaran;9992523441;Digitaran
11529;Direction Regionale de L Equipement;1307052;Direction Regionale de L Equipement;1307052;Direction Regionale de L Equipement;9990011529;Direction Regionale de L Equipement
11627;DivXNetworks;1315589;DivXNetworks;1315589;DivXNetworks;9990011627;DivXNetworks
2357407;Dl-protect.com;46038292;Dl-protect.com;46038292;Dl-protect.com;9992357407;Dl-protect.com
3614;DMG Media;15466271;DMG Media;15466271;DMG Media;9990003614;DMG Media
2416059;DNX Network;45711764;DNX Network;45711764;DNX Network;9992416059;DNX Network
11762;Domisys;9952608;Domisys;9952608;Domisys;9990011762;Domisys
1460897;Doodle;15462494;Doodle;15462494;Doodle;9991460897;Doodle
2989763;Doodle Mobile;47074846;Doodle Mobile;47074846;Doodle Mobile;9992989763;Doodle Mobile
2104221;Dpstream.net;3589685;Dpstream.net;3589685;Dpstream.net;9992104221;Dpstream.net
1934465;Dropbox;9952468;Dropbox;9952468;Dropbox;9991934465;Dropbox
2746419;DStorage;45949017;DStorage;45949017;DStorage;9992746419;DStorage
12234;E.Leclerc;1310757;E.Leclerc;1310757;E.Leclerc;9990012234;E.Leclerc
1958135;E2J2;15465289;E2J2;15465289;E2J2;9991958135;E2J2
12509;Easy Group;1373550;Easy Group;1373550;Easy Group;9990012509;Easy Group
1216714;Easyflirt;1307947;Easyflirt;1307947;Easyflirt;9991216714;Easyflirt
1005506;Easyvoyage;1308315;Easyvoyage;1308315;Easyvoyage;9991005506;Easyvoyage
47807;eBay;1306824;eBay;1306824;eBay;9990047807;eBay
3062457;Eborealis;46916331;Eborealis;46916331;Eborealis;9993062457;Eborealis
3098603;ECLYPSIA LLP;48160043;ECLYPSIA LLP;48160043;ECLYPSIA LLP;9993098603;ECLYPSIA LLP
1975364;Ecometrie;9952831;Ecometrie;9952831;Ecometrie;9991975364;Ecometrie
12279;EDF;1373692;EDF;1373692;EDF;9990012279;EDF
1450690;EDG;1312059;EDG;1312059;EDG;9991450690;EDG
12675;Editions Atlas;1314221;Editions Atlas;1314221;Editions Atlas;9990012675;Editions Atlas
1496265;Eeple;11934560;Eeple;11934560;Eeple;9991496265;Eeple
1855153;EfficaWeb;30092955;EfficaWeb;30092955;EfficaWeb;9991855153;EfficaWeb
1693549;EklaWeb;45674757;EklaWeb;45674757;EklaWeb;9991693549;EklaWeb
1424884;ELBEE;1310725;ELBEE;1310725;ELBEE;9991424884;ELBEE
1677790;Electro Depot;30097960;Electro Depot;30097960;Electro Depot;9991677790;Electro Depot
12243;Electronic Arts;1307532;Electronic Arts;1307532;Electronic Arts;9990012243;Electronic Arts
1701451;Elixis;1311804;Elixis;1311804;Elixis;9991701451;Elixis
1259190;E-monsite.com;1308411;E-monsite.com;1308411;E-monsite.com;9991259190;E-monsite.com
2890145;Emotionmap;47356539;Emotionmap;47356539;Emotionmap;9992890145;Emotionmap
1512983;Espace NGR;1311652;Espace NGR;1311652;Espace NGR;9991512983;Espace NGR
13413;Esprit International;3589474;Esprit International;3589474;Esprit International;9990013413;Esprit International
1006015;Etam;1310444;Etam;1310444;Etam;9991006015;Etam
1249160;e-Toxic;1307464;e-Toxic;1307464;e-Toxic;9991249160;e-Toxic
1465707;Etsy;30105105;Etsy;30105105;Etsy;9991465707;Etsy
3092179;ExaShare;48159947;ExaShare;48159947;ExaShare;9993092179;ExaShare
1429749;Expedia;1308636;Expedia;1308636;Expedia;9991429749;Expedia
1240714;Facebook;1306623;Facebook;1306623;Facebook;9991240714;Facebook
1441000;Factosoft - Invenio;1316065;Factosoft - Invenio;1316065;Factosoft - Invenio;9991441000;Factosoft - Invenio
14195;Federation Francaise Football;1307178;Federation Francaise Football;1307178;Federation Francaise Football;9990014195;Federation Francaise Football
1006471;Feu Vert;11934680;Feu Vert;11934680;Feu Vert;9991006471;Feu Vert
2058572;Fiches-auto.fr;15467576;Fiches-auto.fr;15467576;Fiches-auto.fr;9992058572;Fiches-auto.fr
2908616;Fidall;15468523;Fidall;15468523;Fidall;9992908616;Fidall
1412894;Filehippo.com;46579305;Filehippo.com;46579305;Filehippo.com;9991412894;Filehippo.com
40613;Financiere 118000;1308431;Financiere 118000;1308431;Financiere 118000;9990040613;Financiere 118000
1558183;Findworks Technologies;1382920;Findworks Technologies;1382920;Findworks Technologies;9991558183;Findworks Technologies
2972520;Fingerarts.com;46805622;Fingerarts.com;46805622;Fingerarts.com;9992972520;Fingerarts.com
1471331;Flex Active;30105123;Flex Active;30105123;Flex Active;9991471331;Flex Active
3150324;Fnac;48432123;Fnac;48432123;Fnac;9993150324;Fnac
14773;Ford Motor Company;30096195;Ford Motor Company;30096195;Ford Motor Company;9990014773;Ford Motor Company
1865908;ForumConstruire;11933217;ForumConstruire;11933217;ForumConstruire;9991865908;ForumConstruire
1014319;Fotovista;1307970;Fotovista;1307970;Fotovista;9991014319;Fotovista
14968;Française des Jeux;1307166;Francaise des Jeux;1307166;Francaise des Jeux;9990014968;Francaise des Jeux
1259335;France Hardware;15464500;France Hardware;15464500;France Hardware;9991259335;France Hardware
14917;francetélévisions;1307556;francetelevisions;1307556;francetelevisions;9990014917;francetelevisions
3108722;Full-stream.net;47966001;Full-stream.net;47966001;Full-stream.net;9993108722;Full-stream.net
1007113;Futura-Sciences;1374310;Futura-Sciences;1374310;Futura-Sciences;9991007113;Futura-Sciences
16001;Gameloft;1306863;Gameloft;1306863;Gameloft;9990016001;Gameloft
2892896;GAMES FOR FRIENDS GmbH;46276865;GAMES FOR FRIENDS GmbH;46276865;GAMES FOR FRIENDS GmbH;9992892896;GAMES FOR FRIENDS GmbH
1486493;Gaumont & Pathe;1311885;Gaumont & Pathe;1311885;Gaumont & Pathe;9991486493;Gaumont & Pathe
16139;GDF-SUEZ;1315717;GDF-SUEZ;1315717;GDF-SUEZ;9990016139;GDF-SUEZ
433703;Geeknet;1374314;Geeknet;1374314;Geeknet;9990433703;Geeknet
1007408;Gemo;30108512;Gemo;30108512;Gemo;9991007408;Gemo
16212;GeneaNet;1315005;GeneaNet;1315005;GeneaNet;9990016212;GeneaNet
1552329;GIFI;15466286;GIFI;15466286;GIFI;9991552329;GIFI
1752604;Global Electronic Business;1306775;Global Electronic Business;1306775;Global Electronic Business;9991752604;Global Electronic Business
1716405;GNT Media;1308208;GNT Media;1308208;GNT Media;9991716405;GNT Media
16821;Google;1306630;Google;1306630;Google;9990016821;Google
1915171;Goojet;1307302;Goojet;1307302;Goojet;9991915171;Goojet
412687;Gorilla Nation Media;1374433;Gorilla Nation Media;1374433;Gorilla Nation Media;9990412687;Gorilla Nation Media
16851;Gouvernement Francais;1374437;Gouvernement Francais;1374437;Gouvernement Francais;9990016851;Gouvernement Francais
1500249;Gralon;1312044;Gralon;1312044;Gralon;9991500249;Gralon
1092681;Groupe Amaury;1306706;Groupe Amaury;1306706;Groupe Amaury;9991092681;Groupe Amaury
17125;Groupe Auchan;1307941;Groupe Auchan;1307941;Groupe Auchan;9990017125;Groupe Auchan
1725287;Groupe Beaumanoir;30105586;Groupe Beaumanoir;30105586;Groupe Beaumanoir;9991725287;Groupe Beaumanoir
17129;Groupe Casino;1307235;Groupe Casino;1307235;Groupe Casino;9990017129;Groupe Casino
17128;Groupe CIC;1308124;Groupe CIC;1308124;Groupe CIC;9990017128;Groupe CIC
9799;Groupe Credit Agricole;1307278;Groupe Credit Agricole;1307278;Groupe Credit Agricole;9990009799;Groupe Credit Agricole
1272659;Groupe Distritoys;30127239;Groupe Distritoys;30127239;Groupe Distritoys;9991272659;Groupe Distritoys
433216;Groupe Figaro;1371058;Groupe Figaro;1371058;Groupe Figaro;9990433216;Groupe Figaro
17134;Groupe Galeries Lafayette;1374906;Groupe Galeries Lafayette;1374906;Groupe Galeries Lafayette;9990017134;Groupe Galeries Lafayette
1007871;Groupe Go Sport;30093299;Groupe Go Sport;30093299;Groupe Go Sport;9991007871;Groupe Go Sport
1007865;Groupe Groupama;1374940;Groupe Groupama;1374940;Groupe Groupama;9991007865;Groupe Groupama
17136;Groupe Lagardere;1306700;Groupe Lagardere;1306700;Groupe Lagardere;9990017136;Groupe Lagardere
1785927;Groupe Les Echos;1307631;Groupe Les Echos;1307631;Groupe Les Echos;9991785927;Groupe Les Echos
9383;Groupe Louis Delhaize;1313757;Groupe Louis Delhaize;1313757;Groupe Louis Delhaize;9990009383;Groupe Louis Delhaize
1007876;Groupe Marie Claire;1374969;Groupe Marie Claire;1374969;Groupe Marie Claire;9991007876;Groupe Marie Claire
25928;Groupe Maximiles;1310802;Groupe Maximiles;1310802;Groupe Maximiles;9990025928;Groupe Maximiles
435716;Groupe Moniteur;1311660;Groupe Moniteur;1311660;Groupe Moniteur;9990435716;Groupe Moniteur
17148;Groupe Saint-Gobain;1315078;Groupe Saint-Gobain;1315078;Groupe Saint-Gobain;9990017148;Groupe Saint-Gobain
17145;Groupe SeLoger.com;1306866;Groupe SeLoger.com;1306866;Groupe SeLoger.com;9990017145;Groupe SeLoger.com
17149;Groupe Sporever;1307244;Groupe Sporever;1307244;Groupe Sporever;9990017149;Groupe Sporever
17151;Groupe TF1;1306709;Groupe TF1;1306709;Groupe TF1;9990017151;Groupe TF1
1007886;Groupement Carte Bleue;30101189;Groupement Carte Bleue;30101189;Groupement Carte Bleue;9991007886;Groupement Carte Bleue
270809;Groupement des Mousquetaires;1311474;Groupement des Mousquetaires;1311474;Groupement des Mousquetaires;9990270809;Groupement des Mousquetaires
2187425;Groupon Inc.;15469106;Groupon Inc.;15469106;Groupon Inc.;9992187425;Groupon Inc.
17176;Grupo Intercom;1375488;Grupo Intercom;1375488;Grupo Intercom;9990017176;Grupo Intercom
1653636;Hardsextube.com;3589813;Hardsextube.com;3589813;Hardsextube.com;9991653636;Hardsextube.com
18149;Hennes & Mauritz;11933921;Hennes & Mauritz;11933921;Hennes & Mauritz;9990018149;Hennes & Mauritz
18235;Hewlett-Packard Company;1375592;Hewlett-Packard Company;1375592;Hewlett-Packard Company;9990018235;Hewlett-Packard Company
18249;HiMedia Group;1307070;HiMedia Group;1307070;HiMedia Group;9990018249;HiMedia Group
1519305;HomeAway;1375682;HomeAway;1375682;HomeAway;9991519305;HomeAway
1450750;HTC;1306932;HTC;1306932;HTC;9991450750;HTC
18927;Hubert Burda Media;30101765;Hubert Burda Media;30101765;Hubert Burda Media;9990018927;Hubert Burda Media
2961562;Humanoid;3589385;Humanoid;3589385;Humanoid;9992961562;Humanoid
1008738;Hutchison-Priceline;1308120;Hutchison-Priceline;1308120;Hutchison-Priceline;9991008738;Hutchison-Priceline
1223916;I Comparateur;1314026;I Comparateur;1314026;I Comparateur;9991223916;I Comparateur
1669888;Idealo Internet;1311550;Idealo Internet;1311550;Idealo Internet;9991669888;Idealo Internet
1090986;IdGroup;1314483;IdGroup;1314483;IdGroup;9991090986;IdGroup
1637910;IGraal;1375744;IGraal;1375744;IGraal;9991637910;IGraal
2991986;IHandy;45949093;IHandy;45949093;IHandy;9992991986;IHandy
19255;IKEA;1307856;IKEA;1307856;IKEA;9990019255;IKEA
2908737;iLGMedia;3589154;iLGMedia;3589154;iLGMedia;9992908737;iLGMedia
33374;Iliad;1306859;Iliad;1306859;Iliad;9990033374;Iliad
1009025;Ilius;1306818;Ilius;1306818;Ilius;9991009025;Ilius
2013387;Imgur.com;46579367;Imgur.com;46579367;Imgur.com;9992013387;Imgur.com
1909387;IMINENT;1308049;IMINENT;1308049;IMINENT;9991909387;IMINENT
19759;IncrediMail;1310173;IncrediMail;1310173;IncrediMail;9990019759;IncrediMail
2018614;Incubart;30101541;Incubart;30101541;Incubart;9992018614;Incubart
1941458;Indeed;3589177;Indeed;3589177;Indeed;9991941458;Indeed
1585978;Index Education;45713589;Index Education;45713589;Index Education;9991585978;Index Education
1009142;Inditex;9952770;Inditex;9952770;Inditex;9991009142;Inditex
2723688;Info Conception;46276688;Info Conception;46276688;Info Conception;9992723688;Info Conception
1909145;Info Region Editions;15463525;Info Region Editions;15463525;Info Region Editions;9991909145;Info Region Editions
19920;Infogreffe;3589445;Infogreffe;3589445;Infogreffe;9990019920;Infogreffe
433213;Infopro Communications;30107906;Infopro Communications;30107906;Infopro Communications;9990433213;Infopro Communications
17135;ING Group;30095740;ING Group;30095740;ING Group;9990017135;ING Group
1616937;InnoGames;3588805;InnoGames;3588805;InnoGames;9991616937;InnoGames
20148;Insee;1313101;Insee;1313101;Insee;9990020148;Insee
20208;Institut National de la Consommation;44895472;Institut National de la Consommation;44895472;Institut National de la Consommation;9990020208;Institut National de la Consommation
20207;Institut National de l'Audiovisuel;1315599;Institut National de l'Audiovisuel;1315599;Institut National de l'Audiovisuel;9990020207;Institut National de l'Audiovisuel
43388;InterActiveCorp;1308061;InterActiveCorp;1308061;InterActiveCorp;9990043388;InterActiveCorp
20885;Intersport;1376309;Intersport;1376309;Intersport;9990020885;Intersport
1765954;Issuu;30103898;Issuu;30103898;Issuu;9991765954;Issuu
2258726;Jeremstar.net;47356885;Jeremstar.net;47356885;Jeremstar.net;9992258726;Jeremstar.net
1268251;JeuxActu.com;15462669;JeuxActu.com;15462669;JeuxActu.com;9991268251;JeuxActu.com
1636628;Jimdo GmbH;15465707;Jimdo GmbH;15465707;Jimdo GmbH;9991636628;Jimdo GmbH
21961;Joue Club;15468322;Joue Club;15468322;Joue Club;9990021961;Joue Club
22469;Karavel;1308423;Karavel;1308423;Karavel;9990022469;Karavel
22717;Kiabi;1308624;Kiabi;1308624;Kiabi;9990022717;Kiabi
2973120;Kiloo;46132588;Kiloo;46132588;Kiloo;9992973120;Kiloo
1232499;King.com;15464246;King.com;15464246;King.com;9991232499;King.com
22805;Kingfisher;1375822;Kingfisher;1375822;Kingfisher;9990022805;Kingfisher
1569918;Komodo;1308065;Komodo;1308065;Komodo;9991569918;Komodo
1800264;Konbini;46805472;Konbini;46805472;Konbini;9991800264;Konbini
1010323;Koodoo;3588936;Koodoo;3588936;Koodoo;9991010323;Koodoo
1252630;Koreus.com;1312959;Koreus.com;1312959;Koreus.com;9991252630;Koreus.com
2999351;KS Mobile;46915230;KS Mobile;46915230;KS Mobile;9992999351;KS Mobile
3116442;K-streaming.com;48159960;K-streaming.com;48159960;K-streaming.com;9993116442;K-streaming.com
23450;L Argus;1375863;L Argus;1375863;L Argus;9990023450;L Argus
1675779;L atelier des Chefs;44669056;L atelier des Chefs;44669056;L atelier des Chefs;9991675779;L atelier des Chefs
23455;L Occitane;30104770;L Occitane;30104770;L Occitane;9990023455;L Occitane
1780252;La fourchette;1375892;La fourchette;1375892;La fourchette;9991780252;La fourchette
1467227;La Halle;30104559;La Halle;30104559;La Halle;9991467227;La Halle
23586;La Poste;1306959;La Poste;1306959;La Poste;9990023586;La Poste
1085834;La Redoute;48432122;La Redoute;48432122;La Redoute;9991085834;La Redoute
1736724;La Tribune;1307853;La Tribune;1307853;La Tribune;9991736724;La Tribune
1205430;Laurent Camus;15463738;Laurent Camus;15463738;Laurent Camus;9991205430;Laurent Camus
23492;LDLC;1308348;LDLC;1308348;LDLC;9990023492;LDLC
2976837;Le Gorafi;46132501;Le Gorafi;46132501;Le Gorafi;9992976837;Le Gorafi
1437229;Le Journal du Geek;3589602;Le Journal du Geek;3589602;Le Journal du Geek;9991437229;Le Journal du Geek
23883;Le Monde;1306641;Le Monde;1306641;Le Monde;9990023883;Le Monde
23888;Le Point;1310502;Le Point;1310502;Le Point;9990023888;Le Point
23500;LEGO Group;9952781;LEGO Group;9952781;LEGO Group;9990023500;LEGO Group
12678;Les Editions Independantes;1308074;Les Editions Independantes;1308074;Les Editions Independantes;9990012678;Les Editions Independantes
1821514;Les Foodies;1316057;Les Foodies;1316057;Les Foodies;9991821514;Les Foodies
2649561;Letribunaldunet.fr;46407540;Letribunaldunet.fr;46407540;Letribunaldunet.fr;9992649561;Letribunaldunet.fr
1212277;Lexilogos;1312963;Lexilogos;1312963;Lexilogos;9991212277;Lexilogos
24099;Liberation;1375981;Liberation;1375981;Liberation;9990024099;Liberation
2544444;Libertyland.tv;45713045;Libertyland.tv;45713045;Libertyland.tv;9992544444;Libertyland.tv
1211367;Lidl+Schwarz;1375986;Lidl+Schwarz;1375986;Lidl+Schwarz;9991211367;Lidl+Schwarz
2344590;Light In The Box;46579141;Light In The Box;46579141;Light In The Box;9992344590;Light In The Box
2283804;Linguee;45711974;Linguee;45711974;Linguee;9992283804;Linguee
1228281;LinkedIn;1308342;LinkedIn;1308342;LinkedIn;9991228281;LinkedIn
1270233;LMDN;1314164;LMDN;1314164;LMDN;9991270233;LMDN
23456;LOreal;1376000;LOreal;1376000;LOreal;9990023456;LOreal
2786662;LOTUM GmbH;47074852;LOTUM GmbH;47074852;LOTUM GmbH;9992786662;LOTUM GmbH
1276172;Ludendo;30127647;Ludendo;30127647;Ludendo;9991276172;Ludendo
23557;LVMH Moët Hennessy Louis Vuitton;3589246;LVMH Moet Hennessy Louis Vuitton;3589246;LVMH Moet Hennessy Louis Vuitton;9990023557;LVMH Moet Hennessy Louis Vuitton
17137;M6;1307658;M6;1307658;M6;9990017137;M6
24833;MAAF Assurances;30102808;MAAF Assurances;30102808;MAAF Assurances;9990024833;MAAF Assurances
1011404;MacGeneration;1307973;MacGeneration;1307973;MacGeneration;9991011404;MacGeneration
25140;Macif;1316106;Macif;1316106;Macif;9990025140;Macif
2985035;Macropinch.com;47356915;Macropinch.com;47356915;Macropinch.com;9992985035;Macropinch.com
2075443;MADEINWORK;1313375;MADEINWORK;1313375;MADEINWORK;9992075443;MADEINWORK
24839;MAIF;30095724;MAIF;30095724;MAIF;9990024839;MAIF
1498866;Maisons du Monde;15466466;Maisons du Monde;15466466;Maisons du Monde;9991498866;Maisons du Monde
2103993;MC Centrale;15467066;MC Centrale;15467066;MC Centrale;9992103993;MC Centrale
297139;McAfee;3589127;McAfee;3589127;McAfee;9990297139;McAfee
25983;McDonald's;1376323;McDonald's;1376323;McDonald's;9990025983;McDonald's
1798315;Mediapart;11934435;Mediapart;11934435;Mediapart;9991798315;Mediapart
26304;Meilleur du Chef;1313364;Meilleur du Chef;1313364;Meilleur du Chef;9990026304;Meilleur du Chef
1681543;Mercotte.fr;47214940;Mercotte.fr;47214940;Mercotte.fr;9991681543;Mercotte.fr
26403;Meredith Corporation;45146142;Meredith Corporation;45146142;Meredith Corporation;9990026403;Meredith Corporation
1206549;Meteo France;1307087;Meteo France;1307087;Meteo France;9991206549;Meteo France
1470453;Meteociel;11934044;Meteociel;11934044;Meteociel;9991470453;Meteociel
2336902;Meteo-villes.com;9952521;Meteo-villes.com;9952521;Meteo-villes.com;9992336902;Meteo-villes.com
26592;Michelin;1307223;Michelin;1307223;Michelin;9990026592;Michelin
26655;Micromania;1314966;Micromania;1314966;Micromania;9990026655;Micromania
26666;Microsoft;1306685;Microsoft;1306685;Microsoft;9990026666;Microsoft
1841630;Mim;30104326;Mim;30104326;Mim;9991841630;Mim
1967972;Mindspark Interactive Network;46038283;Mindspark Interactive Network;46038283;Mindspark Interactive Network;9991967972;Mindspark Interactive Network
1088297;Ministere de l Ecologie de l Energie du Developpement Durable et de l Amenagement du Territoire;1313503;Ministere de l Ecologie de l Energie du Developpement Durable et de l Amenagement du Territoire;1313503;Ministere de l Ecologie de l Energie du Developpement Durable et de l Amenagement du Territoire;9991088297;Ministere de l Ecologie de l Energie du Developpement Durable et de l Amenagement du Territoire
2020933;Ministere de l Economie de l Industrie et de l Emploi;15469009;Ministere de l Economie de l Industrie et de l Emploi;15469009;Ministere de l Economie de l Industrie et de l Emploi;9992020933;Ministere de l Economie de l Industrie et de l Emploi
26843;Ministere de l Economie des Finances et de l Industrie;1309800;Ministere de l Economie des Finances et de l Industrie;1309800;Ministere de l Economie des Finances et de l Industrie;9990026843;Ministere de l Economie des Finances et de l Industrie
26844;Ministere de l Education Nationale;1309083;Ministere de l Education Nationale;1309083;Ministere de l Education Nationale;9990026844;Ministere de l Education Nationale
1480806;Ministere de l Education Nationale Superieur et de la Recherche;15468973;Ministere de l Education Nationale Superieur et de la Recherche;15468973;Ministere de l Education Nationale Superieur et de la Recherche;9991480806;Ministere de l Education Nationale Superieur et de la Recherche
271130;Ministere de l Emploi et de la Solidarite;1313798;Ministere de l Emploi et de la Solidarite;1313798;Ministere de l Emploi et de la Solidarite;9990271130;Ministere de l Emploi et de la Solidarite
26909;Ministere De L Interieur;1310410;Ministere de l Interieur;1310410;Ministere de l Interieur;9990026909;Ministere de l Interieur
26850;Ministere de la Culture;1371439;Ministere de la Culture;1371439;Ministere de la Culture;9990026850;Ministere de la Culture
1279517;Ministere de la Defense;1371462;Ministere de la Defense;1371462;Ministere de la Defense;9991279517;Ministere de la Defense
1681568;Ministere du Budget Des Comptes Publics et de La Fonction Publique;1371500;Ministere du Budget Des Comptes Publics et de La Fonction Publique;1371500;Ministere du Budget Des Comptes Publics et de La Fonction Publique;9991681568;Ministere du Budget Des Comptes Publics et de La Fonction Publique
2199831;Minutebuzz.com;30103717;Minutebuzz.com;30103717;Minutebuzz.com;9992199831;Minutebuzz.com
2994551;Mobiles Republic;15468086;Mobiles Republic;15468086;Mobiles Republic;9992994551;Mobiles Republic
2295646;Mobiletag;45295808;Mobiletag;45295808;Mobiletag;9992295646;Mobiletag
1441388;Mode Media (Formerly Glam Media);9952527;Mode Media (Glam Media);9952527;Mode Media (Glam Media);9991441388;Mode Media (Formerly Glam Media)
27196;Mondadori;1307899;Mondadori;1307899;Mondadori;9990027196;Mondadori
39886;Monster Worldwide;1307895;Monster Worldwide;1307895;Monster Worldwide;9990039886;Monster Worldwide
3088423;Movitex;47765859;Movitex;47765859;Movitex;9993088423;Movitex
1269016;Mozilla Foundation;1309032;Mozilla Foundation;1309032;Mozilla Foundation;9991269016;Mozilla Foundation
27502;Mr Bricolage;30101336;Mr Bricolage;30101336;Mr Bricolage;9990027502;Mr Bricolage
1691150;MyClick Internet;1314772;MyClick Internet;1314772;MyClick Internet;9991691150;MyClick Internet
2521590;MyLikes;46805475;MyLikes;46805475;MyLikes;9992521590;MyLikes
2559647;MyPCBackup;47214149;MyPCBackup;47214149;MyPCBackup;9992559647;MyPCBackup
1012836;Nature et Decouvertes;15466204;Nature et Decouvertes;15466204;Nature et Decouvertes;9991012836;Nature et Decouvertes
28700;Nestlé;1371688;Nestle;1371688;Nestle;9990028700;Nestle
3055421;NETELYNX;45146679;NETELYNX;45146679;NETELYNX;9993055421;NETELYNX
1674392;NetMediaEurope;3589673;NetMediaEurope;3589673;NetMediaEurope;9991674392;NetMediaEurope
1836749;NetUNeed;1307214;NetUNeed;1307214;NetUNeed;9991836749;NetUNeed
1457003;Netvibes;1371786;Netvibes;1371786;Netvibes;9991457003;Netvibes
29418;Next Radio TV;1307359;Next Radio TV;1307359;Next Radio TV;9990029418;Next Radio TV
27991;NFO WorldGroup;47500985;NFO WorldGroup;47500985;NFO WorldGroup;9990027991;NFO WorldGroup
29591;Nike;1308360;Nike;1308360;Nike;9990029591;Nike
1217096;Nocibe;15462754;Nocibe;15462754;Nocibe;9991217096;Nocibe
29794;Nokia;1307120;Nokia;1307120;Nokia;9990029794;Nokia
3110594;Non Stop Edition;47766350;Non Stop Edition;47766350;Non Stop Edition;9993110594;Non Stop Edition
1013252;Norauto;1314859;Norauto;1314859;Norauto;9991013252;Norauto
1009187;NotreFamille.com;1309714;NotreFamille.com;1309714;NotreFamille.com;9991009187;NotreFamille.com
17144;Nouvel Observateur;1307467;Nouvel Observateur;1307467;Nouvel Observateur;9990017144;Nouvel Observateur
17141;NRJ Global;1306688;NRJ Global;1306688;NRJ Global;9990017141;NRJ Global
30167;Nvidia;30101934;Nvidia;30101934;Nvidia;9990030167;Nvidia
2615104;ODIGEO Group;45146978;ODIGEO Group;45146978;ODIGEO Group;9992615104;ODIGEO Group
1224528;Ogone;1313610;Ogone;1313610;Ogone;9991224528;Ogone
14916;Orange;1306727;Orange;1306727;Orange;9990014916;Orange
274134;Oredis;1306916;Oredis;1306916;Oredis;9990274134;Oredis
1393047;Oscaro.com;1315685;Oscaro.com;1315685;Oscaro.com;9991393047;Oscaro.com
30274;OTTO;1307374;OTTO;1307374;OTTO;9990030274;OTTO
2378861;Outfit7;30111586;Outfit7;30111586;Outfit7;9992378861;Outfit7
2273266;Outsourcing Network Intelligence;30124458;Outsourcing Network Intelligence;30124458;Outsourcing Network Intelligence;9992273266;Outsourcing Network Intelligence
31090;OVH;1307461;OVH;1307461;OVH;9990031090;OVH
1702333;Oxygem Media;1372044;Oxygem Media;1372044;Oxygem Media;9991702333;Oxygem Media
1488591;Panther Holding;47074810;Panther Holding;47074810;Panther Holding;9991488591;Panther Holding
2914890;Papystreaming;46420243;Papystreaming;46420243;Papystreaming;9992914890;Papystreaming
31645;Paroles;46579161;Paroles;46579161;Paroles;9990031645;Paroles
1518324;Parolesmania.com;15469155;Parolesmania.com;15469155;Parolesmania.com;9991518324;Parolesmania.com
1416332;Paroles-Musique.com;1314217;Paroles-Musique.com;1314217;Paroles-Musique.com;9991416332;Paroles-Musique.com
31659;Particulier a Particulier;1307646;Particulier a Particulier;1307646;Particulier a Particulier;9990031659;Particulier a Particulier
1270818;Phildar;46038665;Phildar;46038665;Phildar;9991270818;Phildar
32179;Philips Electronics;1372144;Philips Electronics;1372144;Philips Electronics;9990032179;Philips Electronics
2501632;Phonandroid.com;44853240;Phonandroid.com;44853240;Phonandroid.com;9992501632;Phonandroid.com
32260;PhotoBox;1312066;PhotoBox;1312066;PhotoBox;9990032260;PhotoBox
32312;Pierre et Vacances;1310523;Pierre et Vacances;1310523;Pierre et Vacances;9990032312;Pierre et Vacances
2395824;Pinterest.com;44795301;Pinterest.com;44795301;Pinterest.com;9992395824;Pinterest.com
1607871;Piriform;1372158;Piriform;1372158;Piriform;9991607871;Piriform
1674722;Planet.fr;1310682;Planet.fr;1310682;Planet.fr;9991674722;Planet.fr
32500;Plantes et Jardins;30100332;Plantes et Jardins;30100332;Plantes et Jardins;9990032500;Plantes et Jardins
2080544;Play Media;30103043;Play Media;30103043;Play Media;9992080544;Play Media
1532820;PLEBICOM;30126940;PLEBICOM;30126940;PLEBICOM;9991532820;PLEBICOM
2159084;Plus-Editions;45147138;Plus-Editions;45147138;Plus-Editions;9992159084;Plus-Editions
31293;PMU;1306893;PMU;1306893;PMU;9990031293;PMU
1249432;PNT;47497591;PNT;47497591;PNT;9991249432;PNT
1929814;Pole Emploi;1306947;Pole Emploi;1306947;Pole Emploi;9991929814;Pole Emploi
1271438;Pole-M;15469067;Pole-M;15469067;Pole-M;9991271438;Pole-M
1679008;Pornhub.com;1306833;Pornhub.com;1306833;Pornhub.com;9991679008;Pornhub.com
33066;PriceMinister;1307198;PriceMinister;1307198;PriceMinister;9990033066;PriceMinister
1275404;Prisma Media;30094098;Prisma Media;30094098;Prisma Media;9991275404;Prisma Media
33201;Procter and Gamble;1372187;Procter and Gamble;1372187;Procter and Gamble;9990033201;Procter and Gamble
33294;Promod;1313085;Promod;1313085;Promod;9990033294;Promod
270825;PSA Peugeot Citroen;1308357;PSA Peugeot Citroen;1308357;PSA Peugeot Citroen;9990270825;PSA Peugeot Citroen
12018;Publiane;1309233;Publiane;1309233;Publiane;9990012018;Publiane
1091849;Publicis;30107874;Publicis;30107874;Publicis;9991091849;Publicis
1250006;Purch;30094939;Purch;30094939;Purch;9991250006;Purch
2573724;PureVID;45147100;PureVID;45147100;PureVID;9992573724;PureVID
2654469;QAPA;44952239;QAPA;44952239;QAPA;9992654469;QAPA
33645;Quebecor;30137032;Quebecor;30137032;Quebecor;9990033645;Quebecor
33956;Radio France;1306696;Radio France;1306696;Radio France;9990033956;Radio France
34039;Rakuten;30137093;Rakuten;30137093;Rakuten;9990034039;Rakuten
2707204;RapidGator.net;45147147;RapidGator.net;45147147;RapidGator.net;9992707204;RapidGator.net
33778;RATP;1307160;RATP;1307160;RATP;9990033778;RATP
34215;RealNetworks;1308449;RealNetworks;1308449;RealNetworks;9990034215;RealNetworks
2513711;Recettes.de;45147120;Recettes.de;45147120;Recettes.de;9992513711;Recettes.de
1644807;Redtube.com;1307371;Redtube.com;1307371;Redtube.com;9991644807;Redtube.com
34341;Reed Elsevier;1372415;Reed Elsevier;1372415;Reed Elsevier;9990034341;Reed Elsevier
34466;Renault;1312752;Renault;1312752;Renault;9990034466;Renault
1491349;Rentabiliweb Europe;1307720;Rentabiliweb Europe;1307720;Rentabiliweb Europe;9991491349;Rentabiliweb Europe
1271434;Research Now!;46915286;Research Now!;46915286;Research Now!;9991271434;Research Now!
1015454;Revues.org;46804894;Revues.org;46804894;Revues.org;9991015454;Revues.org
2801142;Rhapsody;47356513;Rhapsody;47356513;Rhapsody;9992801142;Rhapsody
2153576;Riot Games;46420249;Riot Games;46420249;Riot Games;9992153576;Riot Games
34965;Rossel/Sud-Presse;9952378;Rossel/Sud-Presse;9952378;Rossel/Sud-Presse;9990034965;Rossel/Sud-Presse
34982;Roularta;1371013;Roularta;1371013;Roularta;9990034982;Roularta
2371644;RTL net;30094094;RTL net;30094094;RTL net;9992371644;RTL net
35051;Rue du Commerce;1307129;Rue du Commerce;1307129;Rue du Commerce;9990035051;Rue du Commerce
2436935;runtastic;45753562;runtastic;45753562;runtastic;9992436935;runtastic
452483;Rustica;30101348;Rustica;30101348;Rustica;9990452483;Rustica
1767125;RuTube;30101712;RuTube;30101712;RuTube;9991767125;RuTube
41539;Sabre Holdings;1308030;Sabre Holdings;1308030;Sabre Holdings;9990041539;Sabre Holdings
2261188;Safeshare.tv;47214140;Safeshare.tv;47214140;Safeshare.tv;9992261188;Safeshare.tv
35696;Samsung Group;1307226;Samsung Group;1307226;Samsung Group;9990035696;Samsung Group
1433120;Sarenza;1309404;Sarenza;1309404;Sarenza;9991433120;Sarenza
2467581;SAY Media;45713639;SAY Media;45713639;SAY Media;9992467581;SAY Media
35964;Schibsted;1306950;Schibsted;1306950;Schibsted;9990035964;Schibsted
13253;SEIKO EPSON;30101909;SEIKO EPSON;30101909;SEIKO EPSON;9990013253;SEIKO EPSON
2980696;Sens Critique;46259731;Sens Critique;46259731;Sens Critique;9992980696;Sens Critique
1502121;Shazam Entertainment;3590076;Shazam Entertainment;3590076;Shazam Entertainment;9991502121;Shazam Entertainment
2497604;Shopzilla;44669549;Shopzilla;44669549;Shopzilla;9992497604;Shopzilla
1558518;Show Room;1308303;Show Room;1308303;Show Room;9991558518;Show Room
2280833;Simple It;9952722;Simple It;9952722;Simple It;9992280833;Simple It
1007879;Skyrock;1306692;Skyrock;1306692;Skyrock;9991007879;Skyrock
2224640;SlideShare;30109521;SlideShare;30109521;SlideShare;9992224640;SlideShare
2850259;Snapp;30093180;Snapp;30093180;Snapp;9992850259;Snapp
35406;SNCF France;1306983;SNCF France;1306983;SNCF France;9990035406;SNCF France
37633;Societe Generale;1306998;Societe Generale;1306998;Societe Generale;9990037633;Societe Generale
274199;Softissimo;1307760;Softissimo;1307760;Softissimo;9990274199;Softissimo
1250114;Solocal Group;1306754;Solocal Group;1306754;Solocal Group;9991250114;Solocal Group
297656;Sony;1372764;Sony;1372764;Sony;9990297656;Sony
1513328;Soon;1307702;Soon;1307702;Soon;9991513328;Soon
1570018;Sopheos;11933272;Sopheos;11933272;Sopheos;9991570018;Sopheos
1970365;SpaceFoot;30117021;SpaceFoot;30117021;SpaceFoot;9991970365;SpaceFoot
1956259;Spartoo;1307473;Spartoo;1307473;Spartoo;9991956259;Spartoo
2246345;Spi0n.com;46037434;Spi0n.com;46037434;Spi0n.com;9992246345;Spi0n.com
1551994;SPIL Games;1373983;SPIL Games;1373983;SPIL Games;9991551994;SPIL Games
1420632;SPIR;1307739;SPIR;1307739;SPIR;9991420632;SPIR
1939701;Spotify;30093066;Spotify;30093066;Spotify;9991939701;Spotify
3150339;Steinhoff;48432127;Steinhoff;48432127;Steinhoff;9993150339;Steinhoff
3026005;Streamcomplet.com;47214117;Streamcomplet.com;47214117;Streamcomplet.com;9993026005;Streamcomplet.com
1974092;Streamzzz.com;46579509;Streamzzz.com;46579509;Streamzzz.com;9991974092;Streamzzz.com
1891712;Studyrama Vocatis;1316134;Studyrama Vocatis;1316134;Studyrama Vocatis;9991891712;Studyrama Vocatis
1212731;StumbleUpon;30108962;StumbleUpon;30108962;StumbleUpon;9991212731;StumbleUpon
39115;Sun Microsystems;1314178;Sun Microsystems;1314178;Sun Microsystems;9990039115;Sun Microsystems
2471014;Supercell;46276892;Supercell;46276892;Supercell;9992471014;Supercell
1512457;Surecom Corporation;46579215;Surecom Corporation;46579215;Surecom Corporation;9991512457;Surecom Corporation
3110974;Surikate;48427642;Surikate;48427642;Surikate;9993110974;Surikate
1017799;Systeme U Centrale;1316311;Systeme U Centrale;1316311;Systeme U Centrale;9991017799;Systeme U Centrale
2839461;T411.me;45147117;T411.me;45147117;T411.me;9992839461;T411.me
3062141;Taiwan Shui Mu Chih Ching Technology Limited;47963832;Taiwan Shui Mu Chih Ching Technology Limited;47963832;Taiwan Shui Mu Chih Ching Technology Limited;9993062141;Taiwan Shui Mu Chih Ching Technology Limited
2451191;Talmont Media;30131882;Talmont Media;30131882;Talmont Media;9992451191;Talmont Media
40166;Tamedia;3589632;Tamedia;3589632;Tamedia;9990040166;Tamedia
2373534;Tango.;30105336;Tango.;30105336;Tango.;9992373534;Tango.
40250;Tati;11934595;Tati;11934595;Tati;9990040250;Tati
40281;Taylor Nelson Sofres;1313205;Taylor Nelson Sofres;1313205;Taylor Nelson Sofres;9990040281;Taylor Nelson Sofres
1662043;TeamViewer GmbH;45147111;TeamViewer GmbH;45147111;TeamViewer GmbH;9991662043;TeamViewer GmbH
2520369;TEKKA LAB;47074912;TEKKA LAB;47074912;TEKKA LAB;9992520369;TEKKA LAB
1248864;Tete A Modeler;1315985;Tete A Modeler;1315985;Tete A Modeler;9991248864;Tete A Modeler
1286005;The Pirate Bay;11933630;The Pirate Bay;11933630;The Pirate Bay;9991286005;The Pirate Bay
1604547;The Weather Channel Interactive;1306757;The Weather Channel Interactive;1306757;The Weather Channel Interactive;9991604547;The Weather Channel Interactive
2049470;The Web Family;1307775;The Web Family;1307775;The Web Family;9992049470;The Web Family
1200333;The World News Network;47500358;The World News Network;47500358;The World News Network;9991200333;The World News Network
1706226;TNAflix.com;9952500;TNAflix.com;9952500;TNAflix.com;9991706226;TNAflix.com
1235613;TomTom;1313546;TomTom;1313546;TomTom;9991235613;TomTom
1088604;Touslesprix.com;1311858;Touslesprix.com;1311858;Touslesprix.com;9991088604;Touslesprix.com
42626;ToysRus;15467204;ToysRus;15467204;ToysRus;9990042626;ToysRus
1012664;Travelsoft;15469259;Travelsoft;15469259;Travelsoft;9991012664;Travelsoft
430525;Tripadvisor;46276716;Tripadvisor;46276716;Tripadvisor;9990430525;Tripadvisor
1471771;Trivago;30092961;Trivago;30092961;Trivago;9991471771;Trivago
1210278;Trombi Acquisition;1310090;Trombi Acquisition;1310090;Trombi Acquisition;9991210278;Trombi Acquisition
1960802;Trustpilot;48562249;Trustpilot;48562249;Trustpilot;9991960802;Trustpilot
1696296;Tube8;1307611;Tube8;1307611;Tube8;9991696296;Tube8
2889177;Tukif.com;45713592;Tukif.com;45713592;Tukif.com;9992889177;Tukif.com
2465872;TuneIn;44895564;TuneIn;44895564;TuneIn;9992465872;TuneIn
2240692;Turbobit.net;45147150;Turbobit.net;45147150;Turbobit.net;9992240692;Turbobit.net
1786005;Turner Digital (Time Warner);1307443;Turner Digital (Time Warner);1307443;Turner Digital (Time Warner);9991786005;Turner Digital (Time Warner)
1561760;Twenga;1308543;Twenga;1308543;Twenga;9991561760;Twenga
1596334;Twitter;1307064;Twitter;1307064;Twitter;9991596334;Twitter
1489282;Ubaldi;1312553;Ubaldi;1312553;Ubaldi;9991489282;Ubaldi
43418;Ubisoft Entertainment;15462696;Ubisoft Entertainment;15462696;Ubisoft Entertainment;9990043418;Ubisoft Entertainment
43593;UFC-Que Choisir;1315325;UFC-Que Choisir;1315325;UFC-Que Choisir;9990043593;UFC-Que Choisir
270859;UGC;1314682;UGC;1314682;UGC;9990270859;UGC
1535740;Unblog;1310440;Unblog;1310440;Unblog;9991535740;Unblog
1928965;Union des Associations Diocesaines de France - UADF;15463678;Union des Associations Diocesaines de France - UADF;15463678;Union des Associations Diocesaines de France - UADF;9991928965;Union des Associations Diocesaines de France - UADF
1019287;Unister;45294482;Unister;45294482;Unister;9991019287;Unister
43639;United Internet;1307484;United Internet;1307484;United Internet;9990043639;United Internet
1833138;Unity Technologies;48427759;Unity Technologies;48427759;Unity Technologies;9991833138;Unity Technologies
1450423;Univers Freebox;3589854;Univers Freebox;3589854;Univers Freebox;9991450423;Univers Freebox
2978127;Upstanding;45146575;Upstanding;45146575;Upstanding;9992978127;Upstanding
2723815;Uptobox.com;45674660;Uptobox.com;45674660;Uptobox.com;9992723815;Uptobox.com
43330;URSSAF;1373293;URSSAF;1373293;URSSAF;9990043330;URSSAF
44358;Valve Corporation;1316277;Valve Corporation;1316277;Valve Corporation;9990044358;Valve Corporation
448755;Verifone;1314726;Verifone;1314726;Verifone;9990448755;Verifone
2146481;VEVO;30136711;VEVO;30136711;VEVO;9992146481;VEVO
1392032;Viadeo;1307584;Viadeo;1307584;Viadeo;9991392032;Viadeo
1019478;VIDAL;3589851;VIDAL;3589851;VIDAL;9991019478;VIDAL
1750718;Viedemerde.fr;1307061;Viedemerde.fr;1307061;Viedemerde.fr;9991750718;Viedemerde.fr
44724;Ville de Paris;1308010;Ville de Paris;1308010;Ville de Paris;9990044724;Ville de Paris
1457027;Vinci;30105825;Vinci;30105825;Vinci;9991457027;Vinci
1282832;Vinden.nl;45713670;Vinden.nl;45713670;Vinden.nl;9991282832;Vinden.nl
44754;Virgin Group;1373351;Virgin Group;1373351;Virgin Group;9990044754;Virgin Group
44889;VistaPrint;1308092;VistaPrint;1308092;VistaPrint;9990044889;VistaPrint
2151843;Visual Meta;44853698;Visual Meta;44853698;Visual Meta;9992151843;Visual Meta
1267856;Vivastreet;1306845;Vivastreet;1306845;Vivastreet;9991267856;Vivastreet
44929;Vivendi;1307175;Vivendi;1307175;Vivendi;9990044929;Vivendi-SFR
;;1384505;SFR;1384505;SFR;9990044929;Vivendi-SFR
2154200;VK;15466052;VK;15466052;VK;9992154200;VK
32840;Volkswagen;1373416;Volkswagen;1373416;Volkswagen;9990032840;Volkswagen
1496379;Voyage Prive;1308594;Voyage Prive;1308594;Voyage Prive;9991496379;Voyage Prive
1019902;Vulgaris Medical;1314558;Vulgaris Medical;1314558;Vulgaris Medical;9991019902;Vulgaris Medical
45295;Walt Disney Internet Group;1307406;Walt Disney Internet Group;1307406;Walt Disney Internet Group;9990045295;Walt Disney Internet Group
2108189;Wamiz;30101167;Wamiz;30101167;Wamiz;9992108189;Wamiz
2275864;Waze;30130898;Waze;30130898;Waze;9992275864;Waze
2571597;Web Rivage;45147039;Web Rivage;45147039;Web Rivage;9992571597;Web Rivage
45650;Webastuces;1312706;Webastuces;1312706;Webastuces;9990045650;Webastuces
2110482;Webedia;1307581;Webedia;1307581;Webedia;9992110482;Webedia
1883033;WebEvolutis;44181169;WebEvolutis;44181169;WebEvolutis;9991883033;WebEvolutis
45141;WEKA Firmengruppe;30127168;WEKA Firmengruppe;30127168;WEKA Firmengruppe;9990045141;WEKA Firmengruppe
2563342;Westwing Home & Living GmbH;46259046;Westwing Home & Living GmbH;46259046;Westwing Home & Living GmbH;9992563342;Westwing Home & Living GmbH
2226710;WeTransfer;46276719;WeTransfer;46276719;WeTransfer;9992226710;WeTransfer
2088044;Wibilong;46579107;Wibilong;46579107;Wibilong;9992088044;Wibilong
1807310;Widda;1311849;Widda;1311849;Widda;9991807310;Widda
1471190;Wikia;11934423;Wikia;11934423;Wikia;9991471190;Wikia
1494539;wikiHow;46579340;wikiHow;46579340;wikiHow;9991494539;wikiHow
416150;Wikimedia Foundation;1306853;Wikimedia Foundation;1306853;Wikimedia Foundation;9990416150;Wikimedia Foundation
1808544;Wix.com;46037431;Wix.com;46037431;Wix.com;9991808544;Wix.com
2054654;wooga;23106151;wooga;23106151;wooga;9992054654;wooga
1504154;WordPress.com;1308500;WordPress.com;1308500;WordPress.com;9991504154;WordPress.com
1020459;Wordreference.com;1307440;Wordreference.com;1307440;Wordreference.com;9991020459;Wordreference.com
1779780;Xcams.com;3589000;Xcams.com;3589000;Xcams.com;9991779780;Xcams.com
1689820;xHamster;1307623;xHamster;1307623;xHamster;9991689820;xHamster
46825;Xnxx-pics;1307796;Xnxx-pics;1307796;Xnxx-pics;9990046825;Xnxx-pics
1259114;Xooit.com;1307350;Xooit.com;1307350;Xooit.com;9991259114;Xooit.com
1630552;XVideos.com;1307334;XVideos.com;1307334;XVideos.com;9991630552;XVideos.com
46928;Yahoo;1306715;Yahoo;1306715;Yahoo;9990046928;Yahoo
;;1308339;Davidville;1308339;Davidville;9990046928;Yahoo
1426704;Yelp;9952716;Yelp;9952716;Yelp;9991426704;Yelp
1574895;Youporn.com;1306989;Youporn.com;1306989;Youporn.com;9991574895;Youporn.com
2262613;YouTube mp3;45147103;YouTube mp3;45147103;YouTube mp3;9992262613;YouTube mp3
47215;Yves Rocher;1373872;Yves Rocher;1373872;Yves Rocher;9990047215;Yves Rocher
1931231;Zalando GmbH;30098832;Zalando GmbH;30098832;Zalando GmbH;9991931231;Zalando GmbH
1264452;Zedge.no;3589243;Zedge.no;3589243;Zedge.no;9991264452;Zedge.no
47316;Zendesk;45948694;Zendesk;45948694;Zendesk;9990047316;Zendesk
47349;Ziff Davis, Inc.;1315107;Ziff Davis, Inc.;1315107;Ziff Davis, Inc.;9990047349;Ziff Davis, Inc.
1953509;Ziofix;30103708;Ziofix;30103708;Ziofix;9991953509;Ziofix
2372370;Zone-telechargement.com;45948998;Zone-telechargement.com;45948998;Zone-telechargement.com;9992372370;Zone-telechargement.com
1722804;Zynga;1306995;Zynga;1306995;Zynga;9991722804;Zynga